{
  "project" : "service-publisher",
  "envrionment" : "prod",
  "rabbitmq_ip" : "172.16.3.1",
  "rabbitmq_port": "5672",
  "time_lag": 20,
  "mysql_host": "172.16.3.3",
  "mysql_port" : 31831,
  "mysql_user": "root",
  "mysql_password" : "admin",
  "mysql_database" : "python_benchmark"
}
